module go-server

go 1.20

require (
	github.com/PuerkitoBio/goquery v1.8.1 // indirect
	github.com/andybalholm/cascadia v1.3.1 // indirect
	github.com/antchfx/htmlquery v1.3.0 // indirect
	github.com/antchfx/xmlquery v1.3.17 // indirect
	github.com/antchfx/xpath v1.2.4 // indirect
	github.com/gobwas/glob v0.2.3 // indirect
	github.com/gocolly/colly v1.2.0 // indirect
	github.com/golang/groupcache v0.0.0-20210331224755-41bb18bfe9da // indirect
	github.com/golang/protobuf v1.3.1 // indirect
	github.com/kennygrant/sanitize v1.2.4 // indirect
	github.com/saintfish/chardet v0.0.0-20230101081208-5e3ef4b5456d // indirect
	github.com/temoto/robotstxt v1.1.2 // indirect
	golang.org/x/net v0.12.0 // indirect
	golang.org/x/text v0.11.0 // indirect
	google.golang.org/appengine v1.6.7 // indirect
)
